iter	Passed	Remaining
0	14	14801
1	29	14518
2	41	13679
3	53	13266
4	60	11978
5	71	11835
6	78	11169
7	90	11268
8	103	11407
9	115	11463
10	127	11492
11	140	11581
12	152	11593
13	165	11624
14	176	11592
15	189	11624
16	201	11648
17	213	11651
18	222	11472
19	234	11471
20	247	11549
21	260	11588
22	272	11572
23	283	11538
24	291	11378
25	297	11148
26	309	11143
27	315	10956
28	326	10948
29	339	10961
30	350	10965
31	363	10983
32	374	10965
33	386	10979
34	399	11006
35	410	10994
36	421	10979
37	433	10971
38	445	10967
39	455	10934
40	467	10931
41	479	10936
42	490	10917
43	500	10871
44	558	11844
45	616	12788
46	643	13055
47	684	13576
48	741	14395
49	793	15072
50	838	15596
51	872	15903
52	915	16350
53	948	16615
54	992	17058
55	1047	17666
56	1106	18304
57	1122	18237
58	1159	18493
59	1203	18862
60	1225	18862
61	1281	19395
62	1337	19886
63	1402	20509
64	1460	21015
65	1503	21278
66	1545	21515
67	1588	21777
68	1660	22399
69	1718	22832
70	1762	23061
71	1798	23184
72	1838	23344
73	1883	23565
74	1925	23752
75	1987	24162
76	2037	24426
77	2090	24710
78	2119	24715
79	2185	25133
80	2225	25246
81	2322	26002
82	2374	26239
83	2426	26460
84	2461	26498
85	2505	26629
86	2550	26766
87	2590	26845
88	2630	26922
89	2681	27112
90	2725	27229
91	2792	27557
92	2862	27915
93	2912	28067
94	2950	28104
95	2999	28245
96	3044	28340
97	3122	28736
98	3169	28843
99	3203	28832
100	3253	28960
101	3308	29132
102	3351	29185
103	3415	29425
104	3450	29412
105	3504	29553
106	3553	29656
107	3593	29677
108	3643	29781
109	3682	29795
110	3740	29954
111	3792	30071
112	3852	30240
113	3918	30456
114	3991	30720
115	4038	30777
116	4084	30825
117	4134	30904
118	4178	30934
119	4225	30985
120	4268	31009
121	4321	31097
122	4378	31220
123	4447	31421
124	4498	31486
125	4545	31532
126	4571	31425
127	4601	31350
128	4624	31225
129	4638	31042
130	4651	30853
131	4663	30662
132	4674	30470
133	4686	30286
134	4697	30098
135	4709	29916
136	4720	29738
137	4732	29558
138	4742	29377
139	4753	29201
140	4765	29032
141	4777	28868
142	4789	28706
143	4802	28547
144	4815	28395
145	4828	28244
146	4840	28089
147	4853	27939
148	4865	27791
149	4877	27638
150	4889	27492
151	4902	27350
152	4914	27206
153	4926	27061
154	4938	26924
155	4952	26794
156	4965	26661
157	4978	26530
158	4990	26394
159	5003	26266
160	5014	26133
161	5027	26006
162	5039	25878
163	5051	25750
164	5062	25621
165	5075	25501
166	5087	25378
167	5100	25259
168	5111	25132
169	5122	25009
170	5137	24904
171	5150	24793
172	5163	24681
173	5176	24573
174	5189	24462
175	5201	24351
176	5212	24235
177	5224	24126
178	5238	24026
179	5250	23919
180	5263	23815
181	5274	23706
182	5285	23598
183	5296	23490
184	5308	23386
185	5319	23278
186	5335	23197
187	5348	23101
188	5361	23005
189	5374	22911
190	5386	22813
191	5398	22719
192	5411	22626
193	5423	22530
194	5435	22438
195	5448	22347
196	5460	22255
197	5471	22160
198	5482	22065
199	5493	21975
200	5505	21886
201	5517	21796
202	5529	21708
203	5541	21622
204	5552	21534
205	5565	21452
206	5578	21372
207	5590	21287
208	5603	21208
209	5615	21126
210	5627	21043
211	5640	20964
212	5652	20884
213	5664	20804
214	5676	20725
215	5688	20648
216	5702	20577
217	5728	20549
218	5745	20490
219	5760	20421
220	5772	20346
221	5784	20270
222	5795	20194
223	5808	20120
224	5819	20045
225	5831	19973
226	5844	19903
227	5854	19824
228	5866	19751
229	5878	19679
230	5889	19606
231	5901	19536
232	5913	19467
233	5927	19402
234	5939	19335
235	5952	19268
236	5964	19202
237	5976	19135
238	5988	19067
239	6000	19001
240	6011	18931
241	6022	18865
242	6033	18797
243	6045	18732
244	6057	18667
245	6068	18600
246	6081	18539
247	6092	18475
248	6104	18412
249	6116	18348
250	6129	18291
251	6142	18231
252	6153	18167
253	6164	18104
254	6176	18043
255	6187	17981
256	6199	17921
257	6210	17862
258	6223	17804
259	6234	17745
260	6247	17688
261	6258	17629
262	6270	17570
263	6281	17511
264	6293	17454
265	6304	17396
266	6317	17342
267	6329	17289
268	6342	17234
269	6353	17177
270	6364	17121
271	6376	17067
272	6389	17015
273	6401	16961
274	6412	16906
275	6423	16850
276	6436	16798
277	6448	16746
278	6460	16695
279	6471	16641
280	6483	16589
281	6494	16535
282	6506	16485
283	6518	16434
284	6530	16383
285	6542	16333
286	6554	16283
287	6566	16233
288	6577	16183
289	6588	16131
290	6600	16081
291	6612	16032
292	6623	15982
293	6634	15930
294	6646	15884
295	6660	15840
296	6671	15790
297	6682	15742
298	6694	15696
299	6706	15649
300	6719	15603
301	6730	15554
302	6741	15508
303	6753	15461
304	6765	15415
305	6776	15370
306	6787	15321
307	6798	15274
308	6810	15230
309	6822	15185
310	6834	15140
311	6846	15097
312	6857	15052
313	6868	15006
314	6880	14963
315	6893	14921
316	6904	14876
317	6916	14834
318	6930	14795
319	6943	14755
320	6956	14714
321	6969	14675
322	6981	14633
323	6993	14590
324	7004	14547
325	7015	14505
326	7027	14464
327	7040	14423
328	7052	14383
329	7064	14343
330	7076	14303
331	7089	14265
332	7102	14225
333	7113	14185
334	7125	14144
335	7139	14108
336	7151	14069
337	7163	14030
338	7175	13990
339	7187	13951
340	7198	13911
341	7209	13870
342	7222	13834
343	7234	13796
344	7247	13759
345	7260	13724
346	7273	13686
347	7284	13647
348	7295	13609
349	7308	13572
350	7319	13533
351	7331	13496
352	7342	13458
353	7355	13422
354	7366	13384
355	7379	13349
356	7391	13312
357	7403	13277
358	7414	13239
359	7426	13202
360	7439	13168
361	7451	13133
362	7464	13098
363	7477	13064
364	7487	13027
365	7500	12991
366	7511	12955
367	7523	12920
368	7536	12887
369	7549	12854
370	7561	12819
371	7573	12785
372	7585	12751
373	7598	12718
374	7610	12683
375	7621	12649
376	7633	12615
377	7645	12581
378	7658	12548
379	7670	12515
380	7681	12480
381	7692	12445
382	7704	12412
383	7716	12378
384	7727	12344
385	7739	12311
386	7752	12279
387	7763	12244
388	7774	12211
389	7786	12179
390	7798	12147
391	7809	12113
392	7821	12081
393	7834	12049
394	7845	12016
395	7858	11985
396	7868	11951
397	7879	11917
398	7891	11886
399	7902	11853
400	7914	11822
401	7926	11790
402	7938	11760
403	7950	11729
404	7963	11698
405	7974	11667
406	7986	11636
407	7998	11605
408	8011	11575
409	8023	11545
410	8035	11515
411	8049	11488
412	8061	11457
413	8073	11427
414	8085	11397
415	8097	11367
416	8110	11338
417	8123	11310
418	8134	11279
419	8147	11250
420	8159	11222
421	8172	11192
422	8184	11163
423	8195	11133
424	8207	11103
425	8218	11073
426	8229	11043
427	8241	11013
428	8252	10983
429	8263	10954
430	8276	10926
431	8288	10897
432	8300	10869
433	8311	10839
434	8324	10811
435	8335	10783
436	8346	10752
437	8358	10724
438	8369	10695
439	8381	10667
440	8393	10639
441	8405	10611
442	8417	10583
443	8428	10554
444	8440	10527
445	8453	10500
446	8464	10472
447	8476	10444
448	8487	10416
449	8500	10389
450	8511	10360
451	8523	10333
452	8535	10306
453	8546	10278
454	8558	10251
455	8570	10224
456	8581	10195
457	8591	10167
458	8603	10140
459	8614	10112
460	8625	10084
461	8636	10057
462	8646	10028
463	8658	10002
464	8669	9974
465	8680	9946
466	8692	9921
467	8703	9893
468	8714	9867
469	8726	9840
470	8738	9814
471	8752	9790
472	8765	9766
473	8776	9739
474	8787	9713
475	8799	9686
476	8810	9660
477	8823	9635
478	8834	9608
479	8845	9582
480	8857	9556
481	8868	9531
482	8881	9506
483	8893	9481
484	8906	9457
485	8918	9432
486	8932	9408
487	8945	9384
488	8955	9358
489	8966	9332
490	8977	9306
491	8988	9280
492	9000	9256
493	9011	9230
494	9023	9206
495	9035	9181
496	9047	9157
497	9058	9131
498	9070	9106
499	9082	9082
500	9093	9057
501	9104	9031
502	9115	9007
503	9127	8982
504	9138	8957
505	9150	8933
506	9162	8909
507	9172	8883
508	9184	8859
509	9196	8835
510	9206	8810
511	9218	8786
512	9229	8761
513	9240	8737
514	9252	8713
515	9264	8690
516	9275	8665
517	9287	8641
518	9298	8617
519	9311	8595
520	9323	8571
521	9335	8548
522	9346	8524
523	9358	8501
524	9368	8476
525	9379	8452
526	9390	8428
527	9401	8404
528	9413	8381
529	9425	8358
530	9437	8335
531	9449	8312
532	9461	8289
533	9472	8266
534	9483	8242
535	9495	8220
536	9507	8197
537	9519	8174
538	9531	8152
539	9543	8129
540	9555	8106
541	9567	8084
542	9578	8061
543	9589	8038
544	9601	8016
545	9613	7993
546	9627	7972
547	9638	7950
548	9650	7928
549	9662	7905
550	9673	7883
551	9684	7860
552	9695	7836
553	9706	7814
554	9718	7792
555	9730	7770
556	9743	7748
557	9754	7726
558	9767	7705
559	9779	7683
560	9790	7661
561	9802	7639
562	9814	7618
563	9828	7597
564	9840	7575
565	9851	7553
566	9863	7532
567	9874	7509
568	9886	7488
569	9897	7466
570	9909	7445
571	9921	7424
572	9933	7402
573	9945	7381
574	9956	7359
575	9969	7338
576	9981	7317
577	9993	7296
578	10006	7275
579	10017	7253
580	10027	7231
581	10039	7210
582	10049	7188
583	10061	7166
584	10072	7145
585	10083	7124
586	10094	7102
587	10106	7081
588	10118	7060
589	10129	7039
590	10141	7018
591	10154	6998
592	10165	6977
593	10177	6956
594	10189	6935
595	10201	6915
596	10212	6893
597	10223	6872
598	10234	6851
599	10246	6830
600	10257	6809
601	10270	6790
602	10283	6770
603	10295	6750
604	10307	6729
605	10319	6709
606	10331	6689
607	10343	6668
608	10356	6649
609	10367	6628
610	10379	6608
611	10390	6587
612	10403	6568
613	10416	6548
614	10428	6528
615	10440	6508
616	10451	6487
617	10463	6467
618	10474	6447
619	10487	6427
620	10499	6408
621	10511	6388
622	10524	6368
623	10536	6348
624	10548	6329
625	10561	6309
626	10573	6290
627	10586	6270
628	10599	6251
629	10613	6233
630	10625	6213
631	10635	6192
632	10647	6172
633	10657	6152
634	10668	6132
635	10680	6112
636	10692	6093
637	10704	6073
638	10716	6054
639	10728	6034
640	10739	6014
641	10751	5995
642	10763	5976
643	10776	5957
644	10789	5938
645	10801	5919
646	10814	5900
647	10825	5880
648	10837	5861
649	10849	5842
650	10861	5822
651	10874	5803
652	10884	5784
653	10896	5764
654	10908	5745
655	10921	5727
656	10933	5708
657	10945	5688
658	10956	5669
659	10968	5650
660	10980	5631
661	10993	5612
662	11005	5594
663	11017	5575
664	11029	5556
665	11041	5537
666	11052	5518
667	11064	5499
668	11077	5480
669	11088	5461
670	11100	5442
671	11112	5424
672	11125	5405
673	11136	5386
674	11147	5367
675	11158	5348
676	11169	5329
677	11180	5310
678	11193	5291
679	11203	5272
680	11214	5253
681	11226	5234
682	11238	5216
683	11249	5197
684	11261	5178
685	11273	5160
686	11284	5141
687	11296	5122
688	11308	5104
689	11318	5085
690	11329	5066
691	11341	5047
692	11352	5029
693	11363	5010
694	11375	4992
695	11386	4973
696	11397	4954
697	11409	4936
698	11420	4917
699	11433	4900
700	11444	4881
701	11456	4863
702	11468	4845
703	11480	4827
704	11492	4808
705	11503	4790
706	11513	4771
707	11524	4753
708	11536	4734
709	11547	4716
710	11558	4698
711	11570	4680
712	11581	4661
713	11592	4643
714	11604	4625
715	11616	4607
716	11627	4589
717	11639	4571
718	11651	4553
719	11662	4535
720	11673	4517
721	11684	4499
722	11696	4481
723	11708	4463
724	11720	4445
725	11733	4428
726	11744	4410
727	11754	4391
728	11766	4374
729	11778	4356
730	11788	4338
731	11800	4320
732	11811	4302
733	11823	4284
734	11835	4267
735	11847	4249
736	11858	4231
737	11870	4214
738	11880	4195
739	11891	4178
740	11903	4160
741	11914	4142
742	11926	4125
743	11938	4107
744	11950	4090
745	11963	4073
746	11974	4055
747	11986	4038
748	11998	4020
749	12008	4002
750	12020	3985
751	12032	3968
752	12043	3950
753	12054	3932
754	12066	3915
755	12079	3898
756	12091	3881
757	12103	3864
758	12112	3846
759	12124	3828
760	12136	3811
761	12148	3794
762	12161	3777
763	12173	3760
764	12184	3743
765	12196	3725
766	12207	3708
767	12218	3691
768	12230	3673
769	12242	3656
770	12255	3640
771	12267	3623
772	12278	3605
773	12290	3588
774	12302	3571
775	12313	3554
776	12325	3537
777	12336	3520
778	12348	3503
779	12361	3486
780	12372	3469
781	12383	3452
782	12394	3435
783	12406	3418
784	12418	3401
785	12430	3384
786	12442	3367
787	12454	3350
788	12465	3333
789	12477	3316
790	12489	3299
791	12500	3283
792	12512	3266
793	12524	3249
794	12536	3232
795	12547	3215
796	12558	3198
797	12570	3182
798	12582	3165
799	12593	3148
800	12604	3131
801	12616	3114
802	12628	3098
803	12638	3081
804	12650	3064
805	12662	3047
806	12674	3031
807	12685	3014
808	12697	2997
809	12709	2981
810	12720	2964
811	12733	2948
812	12744	2931
813	12755	2914
814	12767	2898
815	12779	2881
816	12792	2865
817	12803	2848
818	12815	2832
819	12826	2815
820	12838	2799
821	12850	2782
822	12862	2766
823	12873	2749
824	12884	2733
825	12896	2716
826	12908	2700
827	12919	2683
828	12931	2667
829	12943	2651
830	12955	2634
831	12967	2618
832	12979	2602
833	12990	2585
834	13002	2569
835	13013	2552
836	13024	2536
837	13035	2519
838	13046	2503
839	13057	2487
840	13068	2470
841	13080	2454
842	13091	2438
843	13103	2422
844	13115	2405
845	13125	2389
846	13136	2372
847	13147	2356
848	13158	2340
849	13171	2324
850	13184	2308
851	13196	2292
852	13207	2276
853	13220	2260
854	13232	2244
855	13243	2227
856	13254	2211
857	13266	2195
858	13277	2179
859	13288	2163
860	13301	2147
861	13312	2131
862	13324	2115
863	13338	2099
864	13350	2083
865	13362	2067
866	13373	2051
867	13385	2035
868	13398	2019
869	13410	2003
870	13421	1987
871	13433	1971
872	13444	1955
873	13457	1940
874	13469	1924
875	13480	1908
876	13492	1892
877	13503	1876
878	13517	1860
879	13528	1844
880	13538	1828
881	13550	1812
882	13561	1796
883	13572	1780
884	13583	1765
885	13593	1749
886	13606	1733
887	13618	1717
888	13630	1701
889	13642	1686
890	13652	1670
891	13664	1654
892	13675	1638
893	13687	1622
894	13699	1607
895	13710	1591
896	13721	1575
897	13732	1559
898	13743	1544
899	13756	1528
900	13767	1512
901	13780	1497
902	13791	1481
903	13804	1465
904	13815	1450
905	13844	1436
906	13860	1421
907	13876	1406
908	13887	1390
909	13898	1374
910	13910	1359
911	13921	1343
912	13933	1327
913	13944	1312
914	13956	1296
915	13967	1280
916	13978	1265
917	13990	1249
918	14003	1234
919	14015	1218
920	14027	1203
921	14038	1187
922	14050	1172
923	14061	1156
924	14072	1141
925	14084	1125
926	14095	1110
927	14107	1094
928	14120	1079
929	14131	1063
930	14142	1048
931	14155	1032
932	14167	1017
933	14178	1001
934	14190	986
935	14200	970
936	14212	955
937	14226	940
938	14238	924
939	14249	909
940	14262	894
941	14274	878
942	14285	863
943	14297	848
944	14308	832
945	14320	817
946	14331	802
947	14342	786
948	14355	771
949	14366	756
950	14378	740
951	14390	725
952	14401	710
953	14414	695
954	14426	679
955	14437	664
956	14450	649
957	14462	634
958	14496	619
959	14510	604
960	14526	589
961	14536	574
962	14546	558
963	14558	543
964	14570	528
965	14581	513
966	14593	498
967	14605	482
968	14616	467
969	14627	452
970	14638	437
971	14650	422
972	14661	406
973	14673	391
974	14685	376
975	14696	361
976	14708	346
977	14720	331
978	14732	316
979	14743	300
980	14755	285
981	14767	270
982	14778	255
983	14790	240
984	14801	225
985	14813	210
986	14824	195
987	14835	180
988	14847	165
989	14858	150
990	14870	135
991	14882	120
992	14894	104
993	14905	89
994	14917	74
995	14929	59
996	14940	44
997	14953	29
998	14964	14
999	14975	0
